bShifter.vcd
$date
   Sat Apr 18 17:48:09 2026
$end

$version
  2025.2
  $dumpfile ("bShifter.vcd") 
$end

$timescale
  1ps
$end

$scope module tb_bShifter4b $end
$var reg 4 ! a_ti [3:0] $end
$var reg 2 " sel_ti [1:0] $end
$var reg 1 # mode_ti $end
$var wire 4 $ dout_to [3:0] $end
$scope module DUT $end
$var wire 4 % a_i [3:0] $end
$var wire 2 & sel_i [1:0] $end
$var wire 1 ' mode_i $end
$var reg 4 ( dout_o [3:0] $end
$upscope $end
$upscope $end
$enddefinitions $end

#0
$dumpvars
b111 !
b0 "
0#
b111 $
b111 %
b0 &
0'
b111 (
$end

#5000
b1 "
b1110 $
b1 &
b1110 (

#10000
b10 "
b1101 $
b10 &
b1101 (

#15000
b11 "
b1011 $
b11 &
b1011 (

#20000
b0 "
b111 $
b0 &
b111 (

#25000
1#
1'

#30000
b1 "
b1011 $
b1 &
b1011 (

#35000
b10 "
b1101 $
b10 &
b1101 (

#40000
b11 "
b1110 $
b11 &
b1110 (

#45000
b0 "
b111 $
b0 &
b111 (
